{
    "AS_FlexContainer_h7363800444240ecb5c5889e6838ae4f": {
        "id": "AS_FlexContainer_h7363800444240ecb5c5889e6838ae4f",
        "type": "ACTION_SEQUENCE",
        "params": [{
            "datatype": "collection",
            "name": "eventobject"
        }],
        "contextObj": {
            "name": "frmSendMoney",
            "type": "forms",
            "platform": null,
            "KUID": "eb4c465d16334c9b8f17150a0bd73ac3"
        },
        "language": "js",
        "actions": []
    }
}