{
  "background_color": "092d91ff",
  "bg_type": "one",
  "border_color": "000000ff",
  "border_radius": 25,
  "border_style": "custom",
  "border_type": 0,
  "border_width": 1,
  "isDefaultSkin": false,
  "kuid": "s3e5abaf6c484f729072e96b0f7afac4",
  "wType": "FlexContainer"
}