{
  "android": {
    "font_name": "default",
    "font_size": 200,
    "isForked": false
  },
  "androidwearos": {
    "font_name": "default",
    "font_size": 200,
    "isForked": false
  },
  "background_color": "ffffff7f",
  "bg_type": "one",
  "border_color": "85858500",
  "border_style": "plain",
  "border_type": 0,
  "border_width": 0,
  "desktopweb": {
    "font_name": "Helvetica",
    "font_size": 200,
    "isForked": false
  },
  "fontSizeInPx": false,
  "font_color": "2b2b2bff",
  "font_name": "iphoneSystem",
  "font_size": 200,
  "font_style": "normal",
  "font_weight": "400",
  "ipad": {
    "font_name": "System",
    "font_size": 200,
    "isForked": false
  },
  "iphone": {
    "font_name": "System",
    "font_size": 200,
    "isForked": false
  },
  "isDefaultSkin": false,
  "kiosk": {
    "font_name": "None",
    "font_size": 200,
    "isForked": false
  },
  "kuid": "s4d1ea7de3bb4cba984b03035b0ef997",
  "spaan": {
    "font_name": "Helvetica",
    "font_size": 200,
    "isForked": false
  },
  "spaandroidtablet": {
    "font_name": "Helvetica",
    "font_size": 200,
    "isForked": false
  },
  "spabb": {
    "font_name": "Helvetica",
    "font_size": 200,
    "isForked": false
  },
  "spaip": {
    "font_name": "Helvetica",
    "font_size": 200,
    "isForked": false
  },
  "spaipad": {
    "font_name": "Helvetica",
    "font_size": 200,
    "isForked": false
  },
  "spawindowstablet": {
    "font_name": "Helvetica",
    "font_size": 200,
    "isForked": false
  },
  "spawinphone8": {
    "font_name": "Helvetica",
    "font_size": 200,
    "isForked": false
  },
  "tabrcandroid": {
    "font_name": "default",
    "font_size": 200,
    "isForked": false
  },
  "wType": "TextField",
  "watchos": {
    "font_name": "System",
    "font_size": 200,
    "isForked": false
  },
  "windows8": {
    "font_name": "None",
    "font_size": 200,
    "isForked": false
  },
  "winphone8": {
    "font_name": "None",
    "font_size": 200,
    "isForked": false
  }
}