{
    "@class": "com.kony.gen.viz.model.component.KVizButton",
    "DNDConfig": null,
    "__parentReadjusting__": false,
    "_height_": {
        "type": "string",
        "value": "8%"
    },
    "_margin_": [
        6,
        6,
        6,
        6
    ],
    "_padding_": [
        0,
        0,
        1,
        0
    ],
    "_right_": {
        "type": "string",
        "value": "7%"
    },
    "_skin_": "sb6c1f7abe8a46f1b75d689106c02787",
    "_text_": "Forget Password",
    "_top_": {
        "type": "string",
        "value": "0"
    },
    "_width_": {
        "type": "string",
        "value": "50%"
    },
    "canUpdateUI": true,
    "containerweight": 100,
    "contentalignment": 6,
    "displaytext": true,
    "focusskin": "sa9d7b2a461c4d17a80531c0247c916e",
    "id": "btnForgetPassword",
    "info": null,
    "iscustomlayout": false,
    "isvisible": true,
    "kuid": "j566f188d6ba4c54a071252ea390ff9f",
    "name": "kony.ui.Button",
    "paddinginpixel": false,
    "parent": "flxLogin",
    "pf": "frmLoginOLD",
    "retaincontentalignment": false,
    "retainflexpositionproperties": false,
    "wType": "Button"
}